{
  "source": {
    "include": ["lib", "dash", "hls"]
  },
  "templates": {
    "default": {
      "includeDate": false
    },
    "cleverLinks": true,
    "sort": false
  },
  "opts": {
    "pedantic": true,
    "recurse": true,
    "encoding": "utf8",
    "sort": false
  }
}
